C:\Users\360LP0089\workspace\cucumber-demo\src\main\java\com\cucumber\helper\VerificationHelper.java
C:\Users\360LP0089\workspace\cucumber-demo\src\main\java\com\cucumber\browserconfiguration\BrowserType.java
C:\Users\360LP0089\workspace\cucumber-demo\src\main\java\com\cucumber\helper\GenericHelper.java
C:\Users\360LP0089\workspace\cucumber-demo\src\main\java\com\cucumber\PageObject\RegistrationPage.java
C:\Users\360LP0089\workspace\cucumber-demo\src\main\java\com\cucumber\config\ObjectRepo.java
C:\Users\360LP0089\workspace\cucumber-demo\src\main\java\com\cucumber\utility\ResourceHelper.java
C:\Users\360LP0089\workspace\cucumber-demo\src\main\java\com\cucumber\browserconfiguration\FirefoxBrowser.java
C:\Users\360LP0089\workspace\cucumber-demo\src\main\java\com\cucumber\PageObject\LoginPage.java
C:\Users\360LP0089\workspace\cucumber-demo\src\main\java\com\cucumber\helper\WaitHelper.java
C:\Users\360LP0089\workspace\cucumber-demo\src\main\java\com\cucumber\helper\AlertHelper.java
C:\Users\360LP0089\workspace\cucumber-demo\src\main\java\com\cucumber\helper\DropDownHelper.java
C:\Users\360LP0089\workspace\cucumber-demo\src\main\java\com\cucumber\PageObject\ContactUsPage.java
C:\Users\360LP0089\workspace\cucumber-demo\src\main\java\com\cucumber\browserconfiguration\HtmlUnitBrowser.java
C:\Users\360LP0089\workspace\cucumber-demo\src\main\java\com\cucumber\PageObject\HomePage.java
C:\Users\360LP0089\workspace\cucumber-demo\src\main\java\com\cucumber\browserconfiguration\ChromeBrowser.java
C:\Users\360LP0089\workspace\cucumber-demo\src\main\java\com\cucumber\helper\BrowserHelper.java
C:\Users\360LP0089\workspace\cucumber-demo\src\main\java\com\cucumber\utility\DateTimeHelper.java
C:\Users\360LP0089\workspace\cucumber-demo\src\main\java\com\cucumber\helper\JavaScriptHelper.java
C:\Users\360LP0089\workspace\cucumber-demo\src\main\java\com\cucumber\config\PropertyFileReader.java
C:\Users\360LP0089\workspace\cucumber-demo\src\main\java\com\cucumber\helper\TestBase.java
C:\Users\360LP0089\workspace\cucumber-demo\src\main\java\com\cucumber\helper\LoggerHelper.java
C:\Users\360LP0089\workspace\cucumber-demo\src\main\java\com\cucumber\browserconfiguration\IExploreBrowser.java
C:\Users\360LP0089\workspace\cucumber-demo\src\main\java\com\cucumber\config\ConfigReader.java
